807293 347456 5
611357 393577 3
335999 549795 9
125715 302114 2
618009 867493 13
598657 442558 3
340048 131847 11
143226 522375 6
415895 775793 7
689628 868984 13
416775 806826 7
559933 403956 3
533351 147778 14
339212 538693 9
789388 712210 1
410336 767856 7
386415 801444 7
509223 177592 14
127964 538935 6
878859 540155 12
488205 420586 4
834293 161575 8
321556 163352 11
367806 123963 11
915666 506439 12
866928 716961 1
582389 428200 3
148385 538149 6
395817 788858 7
273165 852766 10
582176 630383 0
252199 828023 10
369480 377148 4
143912 595772 6
158713 379013 2
183478 851724 10
371464 328177 4
288954 846991 10
151374 538387 6
481133 781413 7
245144 845719 10
366146 196571 11
347933 797148 7
577773 434308 3
768565 762193 1
398478 822297 7
852423 159874 8
292492 99170 11
399693 395271 4
780927 285057 5
125840 520239 6
855593 161003 8
133780 533275 6
558478 213316 14
261538 525920 9
371000 555062 9
256949 820470 10
665845 557965 0
591051 389443 3
197367 535989 6
351815 574947 9
292636 520371 9
432184 395118 4
361159 436327 4
444816 409502 4
135537 356169 2
866851 129505 8
875625 599766 12
148510 579793 6
323747 163351 11
803780 334441 5
143117 345163 2
430686 844506 7
384572 388523 4
675633 863416 13
795299 312036 5
783999 732487 1
172879 347028 2
617178 414525 3
209264 836661 10
843150 156573 8
270899 175377 11
251958 886571 10
825690 703854 1
797415 319840 5
590500 418472 3
374695 563163 9
220156 589643 6
472054 129986 14
335792 541310 9
174371 864697 10
448865 836781 7
352429 359750 4
306357 123397 11
820757 738235 1
160369 353500 2
777978 252419 5
875160 698897 1
816091 747764 1
359036 365793 4
142516 559062 6
417023 771194 7
728743 850843 13
292872 896822 10
559809 162597 14
813561 583156 12
800565 319364 5
232784 169847 11
489182 773934 7
352381 592377 9
339288 588052 9
843911 730036 1
500801 185558 14
553038 606418 0
850911 157772 8
486870 146947 14
837718 761480 1
369366 561201 9
135336 552552 6
418963 746595 7
332307 189590 11
205919 844377 10
364844 571623 9
607905 403460 3
409515 756149 7
695260 824882 13
327403 548875 9
829673 730398 1
629998 877765 13
871689 155981 8
398795 472619 4
730287 897070 13
380458 329635 4
297183 841456 10
127940 590467 6
667131 849230 13
797272 324228 5
141718 549576 6
632952 385722 3
840059 534876 12
178515 370287 2
864374 150149 8
629247 364078 3
842590 716861 1
393570 579641 9
515230 149567 14
850790 525740 12
437483 785130 7
602013 574722 0
341925 569393 9
674961 865594 13
815652 733433 1
248570 843156 10
600032 575310 0
191257 802651 10
292931 125341 11
857328 143692 8
183583 787453 10
339732 163158 11
462658 75167 14
807446 342555 5
653592 959882 13
789833 304422 5
593490 623110 0
154964 554923 6
187858 381077 2
825414 734466 1
467697 168082 14
321050 422497 4
165356 570715 6
293350 175997 11
307913 91419 11
844948 563321 12
394022 803914 7
880833 537039 12
304376 222294 11
650120 324477 3
803540 754792 1
696257 894819 13
870599 149782 8
793791 581315 12
646671 857872 13
832086 716249 1
567105 437623 3
611315 560757 0
218942 848326 10
695092 820091 13
473799 795167 7
328657 564864 9
402081 407514 4
356246 549756 9
391163 811977 7
800959 322309 5
869167 105039 8
145244 561042 6
693997 774817 13
385091 599401 9
142252 329183 2
245023 849247 10
559078 570088 0
924289 171369 8
849858 524682 12
627206 402647 3
823250 732088 1
626224 569687 0
236740 853169 10
566666 195255 14
138884 529162 6
113099 546732 6
509173 178051 14
601212 370698 3
795571 310093 5
310944 559497 9
119496 543146 6
355924 577596 9
145251 553486 6
477155 161019 14
627912 593892 0
286990 529505 9
502500 176532 14
499262 398424 4
611581 572630 0
802089 313456 5
400305 466024 4
347050 150472 11
638559 558807 0
166840 562425 6
414249 796590 7
176092 531921 6
668234 886696 13
144856 551807 6
858537 548576 12
134134 842630 10
157193 350343 2
824212 363776 5
358483 554925 9
193502 557364 6
580048 565009 0
67867 545392 6
828147 808738 1
165886 348709 2
181463 326571 2
803332 315488 5
369227 397853 4
848137 87922 8
820194 734233 1
359740 379592 4
674236 877152 13
122296 566921 6
598908 254032 14
659529 498474 0
657120 386782 3
683321 873932 13
246857 852483 10
608923 385575 3
800816 176612 8
512560 224816 14
629533 537542 0
156977 424622 2
388479 343648 4
718088 852181 13
569422 567790 0
603388 403039 3
175586 365049 2
195000 354829 2
551798 221411 14
828038 149181 8
817807 715863 1
716590 874975 13
858418 546935 12
657811 885904 13
250003 859517 10
887556 531797 12
358652 186358 11
508535 830710 7
608601 418450 3
534461 178056 14
322140 165212 11
436648 859634 7
864721 548447 12
401313 405195 4
824765 761114 1
705929 851313 13
244260 847060 10
549642 157506 14
306298 551902 9
329029 204399 11
696808 866039 13
420489 448078 4
189029 366740 2
167716 562762 6
490037 164357 14
234604 822462 10
293746 544468 9
225786 529417 6
402891 801910 7
88703 577217 6
617764 397102 3
373339 398565 4
540196 180312 14
789601 714058 1
136580 553967 6
165657 338722 2
562356 383175 3
794260 129843 8
370259 585265 9
846575 159002 8
795124 696429 1
680261 863401 13
343851 193618 11
693265 388552 3
544539 180391 14
334182 558498 9
178235 346006 2
849599 157084 8
602873 527864 0
338474 563350 9
300294 178772 11
139434 557410 6
397747 792207 7
222704 824909 10
291561 845450 10
297177 88467 11
846646 548548 12
675988 841317 13
497254 171940 14
805658 698630 1
240171 843940 10
130683 363204 2
835790 127898 8
154167 353183 2
801634 318965 5
839280 539324 12
517882 175467 14
677459 896720 13
840020 568424 12
804691 332987 5
322936 368566 4
392428 402295 4
446307 796523 7
846011 160034 8
511289 183247 14
676767 832479 13
649034 528813 0
813781 738344 1
814605 354382 5
248276 844455 10
321216 569834 9
343145 172236 11
336085 170252 11
376145 414107 4
413556 758080 7
814158 335578 5
586242 396484 3
579773 568698 0
890613 567037 12
868979 528502 12
884326 479802 12
400598 790903 7
129332 360811 2
594029 586701 0
473093 188791 14
338863 563107 9
481356 162127 14
681941 370225 3
617717 613939 0
594720 848457 13
770113 241615 5
675902 853961 13
138965 558201 6
406337 750353 7
620187 400168 3
131874 552586 6
228928 855040 10
854979 539793 12
320827 519618 9
873380 495161 12
412797 803180 7
908506 549611 12
236431 844100 10
357679 548036 9
689725 465685 3
260590 827955 10
798243 324160 5
459556 818479 7
857360 562228 12
861033 507671 12
617399 392653 3
328423 161604 11
892340 149050 8
213064 290947 2
817269 733788 1
315333 144566 11
811061 333595 5
144570 573936 6
80673 566893 6
323329 93955 11
514981 172608 14
802394 87835 8
339632 536577 9
618446 372298 3
546565 151576 14
417617 414816 4
400902 772920 7
848783 748980 1
669748 863109 13
357275 551101 9
797105 316002 5
846324 557586 12
615032 402225 3
169876 340860 2
644301 925034 13
562704 570596 0
414374 439977 4
800872 672603 1
802646 317894 5
573755 218049 14
402851 395579 4
801309 318213 5
508228 220433 14
136301 569544 6
325938 164475 11
327927 168535 11
337889 558031 9
159428 300364 2
299460 144708 11
801751 318110 5
824185 167369 8
721905 378957 5
788220 301915 5
327569 158418 11
372621 772258 7
671325 856592 13
149906 546909 6
664325 877878 13
141113 351050 2
170271 306395 2
408712 803987 7
330482 571217 9
155228 357729 2
397851 400846 4
515612 540643 0
604157 574191 0
276741 143844 11
607214 575069 0
324952 565867 9
404792 749210 7
853348 525893 12
590583 623314 0
657981 866945 13
674265 861435 13
860106 157080 8
167845 341409 2
889743 560547 12
873636 510687 12
860606 152843 8
502002 166223 14
637594 420311 3
184402 546549 6
153181 277968 2
185935 554627 6
904133 534915 12
874239 594786 12
97430 598804 6
420476 750495 7
834632 541216 12
619332 401992 3
606289 670243 0
671609 815681 13
418046 358461 4
415222 434798 4
241138 844374 10
166290 521714 6
716139 621721 0
335328 562880 9
506815 173387 14
420616 401526 4
677362 853471 13
447833 819282 7
242087 844255 10
801166 322298 5
563315 215613 14
632390 363198 3
140962 518168 6
679211 886670 13
122986 334382 2
168274 374689 2
889260 541423 12
540364 163758 14
397688 762902 7
357014 148222 11
606558 458285 3
409142 811927 7
821464 700760 1
864325 170593 8
408428 771823 7
396118 794614 7
373917 427628 4
397735 448097 4
591831 438997 3
270742 847836 10
562920 559223 0
285152 520229 9
309684 150076 11
389552 750700 7
512051 145220 14
331667 570387 9
389279 424006 4
125675 360158 2
382396 405483 4
427850 762201 7
883929 121705 8
341675 560197 9
419721 789724 7
177858 352255 2
316820 150304 11
415631 805010 7
602365 916673 13
670119 859029 13
795836 291870 5
575022 213534 14
411721 717873 7
807420 168787 8
333934 537464 9
616737 397973 3
526559 509417 0
365223 422531 4
606486 420054 3
169337 348605 2
501416 172980 14
409701 750741 7
331862 169092 11
835648 756631 1
838367 536676 12
778414 260729 5
823113 733720 1
656658 854609 13
344552 554676 9
547270 403384 3
370955 325071 4
401492 790336 7
139903 592241 6
769656 721159 1
658219 436184 3
207552 772091 10
598671 854219 13
276635 875623 10
840462 402858 5
859679 541785 12
676962 897430 13
823108 733302 1
408745 824896 7
340712 563178 9
211360 279794 2
327022 161396 11
366478 594677 9
801931 317202 5
434440 822866 7
812231 739235 1
606809 572101 0
812295 728049 1
497815 165151 14
387631 749416 7
211165 825505 10
803031 325811 5
396621 381952 4
107124 325984 2
325118 556212 9
139847 552015 6
633894 404424 3
620330 396776 3
250394 847577 10
413241 771595 7
238260 882489 10
826585 366934 5
677404 883871 13
604067 574091 0
847904 574114 12
325871 558965 9
614917 600946 0
394159 411676 4
803962 731228 1
163796 345091 2
667280 765619 13
704065 832648 13
186806 334070 2
800483 320713 5
658403 611332 0
312123 419763 4
321309 569996 9
786234 267976 5
320000 162605 11
118137 579149 6
685821 816579 13
687717 379483 3
31842 565765 6
333299 597586 9
790612 738038 1
824098 714042 1
425563 163524 14
874791 559085 12
76253 529394 6
287127 192494 11
767482 727417 1
832010 554080 12
669430 905798 13
814697 729209 1
387756 435588 4
672059 860501 13
379388 567285 9
673140 864863 13
130883 557824 6
144502 345417 2
401330 395538 4
827031 734324 1
159392 351000 2
198197 344933 2
201907 516078 6
615094 383077 3
345692 788190 7
119237 591137 6
801386 313545 5
861027 546004 12
850219 110573 8
56907 586609 6
310529 141617 11
143265 548387 6
399188 402459 4
621278 888326 13
888919 535805 12
629718 558104 0
370602 353215 4
437870 375761 4
507786 199578 14
672818 881943 13
528094 178343 14
592714 553958 0
411171 426853 4
522869 176818 14
675382 836312 13
188909 341194 2
837019 215527 8
415933 422485 4
809781 326904 5
814105 723255 1
632546 389750 3
321519 561045 9
369044 371649 4
198892 322470 2
808069 134402 8
357253 388075 4
820707 705318 1
856753 145184 8
818542 740451 1
848586 789052 1
437568 794323 7
876935 684572 1
814379 132655 8
319155 159850 11
814540 707227 1
558770 390646 3
660327 585901 0
802184 751958 1
163190 331719 2
160206 303063 2
159472 372246 2
800133 327081 5
264798 767716 10
512733 174091 14
401407 759648 7
509956 141698 14
850888 736810 1
199043 270173 2
855603 542414 12
412851 774986 7
826192 577784 12
807421 317527 5
326959 154655 11
402660 406054 4
619628 399433 3
937823 540173 12
408689 562521 9
167653 352074 2
898578 612291 12
440667 768761 7
842616 515205 12
730887 825972 13
103153 601002 6
224241 828996 10
416884 786845 7
791355 529644 12
828005 145089 8
608687 374928 3
504728 174541 14
215243 289985 2
659297 373975 3
585255 415823 3
844734 164570 8
294053 878220 10
367922 415238 4
343217 153037 11
442979 803024 7
345495 579864 9
821428 153468 8
341966 586266 9
451670 388347 4
326627 534442 9
694308 904062 13
325125 564342 9
399291 386712 4
281732 221764 11
631297 578351 0
168149 345638 2
683697 581516 0
304086 576100 9
850787 125678 8
469470 189347 14
679788 889464 13
659191 459637 3
311163 166821 11
583728 563146 0
281548 175184 11
847644 164348 8
128669 574591 6
869960 562146 12
514173 139330 14
826048 374236 5
137680 555667 6
136232 576477 6
849404 170474 8
831165 783383 1
410019 732704 7
245254 907991 10
219686 859997 10
105444 361358 2
235337 831592 10
614615 574437 0
324093 580491 9
188424 849785 10
661166 404325 3
680381 823757 13
819250 517655 12
840863 737972 1
653745 809028 13
400548 402390 4
304157 566007 9
858151 548242 12
208494 850615 10
412028 773494 7
892382 513991 12
797400 315778 5
98525 579761 6
513991 165072 14
294653 104623 11
474641 81263 14
442286 755194 7
224083 852922 10
846090 651306 1
810253 323873 5
351564 573155 9
400545 404212 4
338860 561151 9
875990 133950 8
314479 178821 11
589164 386733 3
324121 96346 11
383197 409869 4
609030 552436 0
579922 379009 3
808710 330379 5
511368 173673 14
218369 851387 10
801609 320399 5
638966 486628 3
616561 619007 0
750459 800215 1
803932 318781 5
839088 528460 12
216543 842952 10
168079 347343 2
379593 380662 4
128788 546091 6
855045 547633 12
837545 696979 1
811389 723618 1
448649 813885 7
396517 394572 4
797162 306135 5
610676 449688 3
621537 390372 3
473316 162622 14
808097 502521 12
387039 365758 4
513010 141058 14
614683 367259 3
114311 601605 6
338935 567577 9
642607 374702 3
128953 304971 2
354132 161850 11
331340 524203 9
135284 555664 6
603359 589262 0
405542 600089 9
139212 557713 6
877964 242679 8
800966 317165 5
298665 568245 9
468350 395883 4
366654 802105 7
801667 318542 5
233480 289069 2
860154 113364 8
430779 770145 7
174672 345849 2
837032 509264 12
94571 528963 6
249857 844975 10
359520 132845 11
136078 547418 6
664355 831472 13
227819 900986 10
328775 156501 11
795909 462864 12
213558 873714 10
847276 121785 8
264274 813041 10
341559 562163 9
538571 654649 0
665775 845662 13
520880 200955 14
268672 508874 9
671444 860206 13
376444 371957 4
139052 610320 6
402071 427626 4
149092 352682 2
603285 449307 3
344437 529492 9
253703 834676 10
439514 758221 7
338347 337961 4
864667 143614 8
657985 453405 3
130582 565948 6
597802 576113 0
875248 462524 12
645563 819480 13
417996 408162 4
509285 174620 14
133744 308918 2
500474 169746 14
282603 846165 10
142668 544976 6
507674 147431 14
99569 523174 6
219864 842635 10
875640 561262 12
363959 810632 7
882007 593653 12
280519 165350 11
417447 782955 7
561388 355834 3
156945 339397 2
324518 167369 11
854909 149938 8
168284 309036 2
166560 559687 6
210597 589836 6
562772 382904 3
523779 163905 14
618893 419740 3
280274 182662 11
809259 345634 5
845120 549830 12
399942 385908 4
283784 178305 11
819439 735945 1
125005 540340 6
838129 404012 5
811502 355939 5
419485 804779 7
833499 504718 12
342066 119083 11
404157 406324 4
164847 287064 2
617447 366176 3
329905 579935 9
480876 160465 14
184412 537050 6
667713 847241 13
367641 556309 9
518068 137556 14
341775 425156 4
871597 185239 8
665308 868551 13
151099 518008 6
348191 165419 11
172116 513383 6
823959 737866 1
598759 582942 0
241485 523039 9
844729 682981 1
342963 582232 9
247210 859012 10
651740 589474 0
410610 765111 7
164046 346109 2
814732 734183 1
601376 579831 0
845303 150476 8
473727 807244 7
801055 321833 5
619427 396945 3
634004 895206 13
806827 324616 5
380749 403860 4
209553 326461 2
357466 354094 4
591484 571087 0
798904 324420 5
641902 755287 13
658734 883214 13
829482 475863 12
336928 557412 9
697161 840318 13
833437 556713 12
502737 174437 14
616281 845406 13
838036 749612 1
153903 353738 2
888697 143969 8
630384 376295 3
804251 331304 5
412615 403902 4
422961 821595 7
248931 844960 10
820258 351165 5
846720 162060 8
493070 189771 14
801102 759330 1
508989 168995 14
739318 810528 13
312227 159417 11
353145 580916 9
125756 579609 6
298214 820903 10
847097 176660 8
610199 394579 3
270201 236813 11
868626 737331 1
338753 563384 9
860951 162251 8
657184 855509 13
483423 111797 14
277027 536847 9
867801 548156 12
473649 178184 14
879722 550246 12
289002 520678 9
800235 316652 5
321910 573825 9
617319 374666 3
332284 194186 11
424476 781552 7
424365 371987 4
841928 398948 5
533931 173291 14
828179 155649 8
399753 404222 4
674492 861230 13
593879 444161 3
839012 550376 12
700098 894685 13
389410 788256 7
416893 347737 4
464672 193513 14
138122 557230 6
68388 574380 6
141641 557376 6
415394 396940 4
436951 814456 7
873527 126426 8
283474 532727 9
612184 570393 0
838223 766380 1
613871 550423 0
823974 725025 1
864040 538985 12
455460 153040 14
618405 842859 13
673028 860593 13
407460 791404 7
888714 205560 8
885379 603686 12
308044 164482 11
460616 174810 14
199859 316334 2
830888 544022 12
703773 870419 13
257093 801567 10
879031 489881 12
804429 312164 5
392447 408539 4
599808 596484 0
338084 560295 9
822883 728314 1
164453 544085 6
281971 825246 10
497582 190801 14
202053 322650 2
864991 159874 8
509773 148899 14
821908 732077 1
246729 879602 10
615325 383841 3
213951 352868 2
402677 412615 4
861023 545953 12
321182 150806 11
179463 361279 2
245258 799882 10
412500 594675 9
238714 858826 10
659280 845579 13
505400 160422 14
497406 125809 14
826228 376658 5
186082 330058 2
222682 806314 10
311328 159477 11
158283 570550 6
793875 473793 12
424811 413300 4
144620 575370 6
810277 520837 12
653177 819935 13
594084 629464 0
510739 121103 14
658884 390135 3
674931 870112 13
849343 713993 1
385140 796221 7
345703 149860 11
588597 622592 0
185253 344152 2
786635 269352 5
385338 440797 4
201567 881003 10
198908 372797 2
162921 317643 2
673953 835926 13
827672 545966 12
617910 592293 0
807696 320548 5
801323 316240 5
245740 814541 10
808777 512952 12
884750 154317 8
546640 560043 0
660103 414557 3
809779 663654 1
800582 316980 5
213022 338238 2
872237 555834 12
182854 534283 6
460628 434107 4
117212 565692 6
606144 575076 0
326152 563230 9
880958 588608 12
316395 537403 9
810460 735109 1
179793 483378 6
216846 737568 10
116142 550919 6
165881 364469 2
386068 422517 4
641976 577433 0
616040 330855 3
860230 528054 12
494000 189403 14
371616 570648 9
682053 853410 13
625416 868848 13
660650 615038 0
179326 321160 2
624415 515911 0
818014 140185 8
809594 344872 5
178264 330827 2
170384 339979 2
840886 397888 5
348815 150017 11
898976 198452 8
452570 848127 7
827081 694553 1
619637 395224 3
846284 113820 8
636807 424537 3
238748 551038 6
204922 854068 10
526802 551524 0
505584 176135 14
376557 109320 11
852267 498220 12
535787 199735 14
365058 545456 9
528938 174372 14
620240 397022 3
260943 889692 10
373191 88470 11
168067 340249 2
688487 383589 3
430138 818594 7
409417 758123 7
333942 143344 11
843572 784897 1
626700 401688 3
624310 398408 3
672800 874378 13
591725 406549 3
675551 956849 13
578878 420108 3
855983 534803 12
622636 456843 3
336829 562228 9
864053 139325 8
422943 804253 7
250921 819639 10
153607 379395 2
806320 315242 5
301983 173386 11
880275 564545 12
328586 551385 9
460942 779073 7
157691 334886 2
806176 320301 5
854818 554389 12
879221 655497 1
313649 523765 9
399997 411205 4
854095 158510 8
76661 531044 6
261120 804153 10
138734 557713 6
541006 175198 14
390934 170420 11
200005 825237 10
147663 555514 6
311819 140674 11
512241 169240 14
671976 864630 13
368200 364844 4
298800 824277 10
604703 392288 3
336585 420977 4
558307 203307 14
506612 858859 7
417169 792321 7
830159 134329 8
601619 825604 13
431437 436764 4
460684 371809 4
452398 378671 4
226949 889283 10
668228 858122 13
802482 335269 5
877298 565604 12
850965 156224 8
169322 577938 6
656156 868643 13
305333 171939 11
494574 198972 14
801145 317601 5
597077 568196 0
111855 531542 6
414562 787355 7
674905 876286 13
391530 398743 4
604090 574392 0
420083 787815 7
881217 172320 8
746769 205186 8
824560 133679 8
662177 420431 3
829790 205695 8
170816 547069 6
312337 154488 11
801903 312794 5
354746 552404 9
431117 394746 4
170002 370000 2
216975 296647 2
784838 771499 1
630491 379017 3
882097 161493 8
221122 832810 10
856202 158811 8
257472 849587 10
293591 522132 9
435067 403802 4
593317 534085 0
535564 177248 14
842824 177832 8
527515 831478 7
393758 439738 4
803277 319525 5
507959 166780 14
397331 407010 4
658590 886551 13
102460 533057 6
508805 429073 4
652349 321291 3
244344 185382 11
803774 334756 5
653258 860766 13
196462 887983 10
514391 156592 14
422056 382193 4
794265 594573 12
420509 788730 7
499272 168413 14
302359 534317 9
650859 460072 3
137347 622867 6
833182 379714 5
248683 383412 2
332470 161202 11
407189 437102 4
127503 623654 6
402367 782997 7
612392 916853 13
101553 517715 6
131532 536658 6
412767 593558 9
582015 546191 0
634973 450542 3
356500 188114 11
261896 897475 10
311093 169734 11
786032 701427 1
640432 837036 13
621629 397208 3
849126 121710 8
774526 757135 1
373907 558472 9
797205 313318 5
169628 365003 2
837676 148639 8
377941 403683 4
576488 397913 3
416110 374296 4
219049 825171 10
584077 398498 3
650157 402991 3
668879 388617 3
444336 820061 7
371563 547746 9
561110 219865 14
803375 311620 5
841752 731595 1
842903 567914 12
368617 554066 9
817119 336333 5
341578 558672 9
816775 739989 1
170616 352610 2
817640 730018 1
859492 572224 12
854012 157449 8
710082 881600 13
338570 192256 11
378347 144880 11
290958 168323 11
632060 367800 3
469656 153741 14
400008 789447 7
873672 734440 1
343018 239960 11
402710 424367 4
105568 584102 6
220224 592068 6
216061 848623 10
94249 600812 6
603145 574795 0
787336 144875 8
600039 557139 0
491382 122267 14
253339 750941 10
94061 576129 6
535453 200970 14
811031 703822 1
329002 727685 7
629891 414975 3
762269 792243 1
397764 406712 4
647968 877873 13
707100 601463 0
553118 165472 14
215976 836025 10
423146 737571 7
138461 558771 6
395013 387179 4
854463 159977 8
360165 553303 9
396081 396707 4
923120 170161 8
407429 399155 4
868493 677155 1
846512 683647 1
245468 859425 10
95899 530846 6
236274 861302 10
849751 167033 8
629978 400626 3
872285 750708 1
870337 534303 12
237689 839510 10
513362 223841 14
674472 860330 13
373894 555347 9
329428 66056 11
528826 154067 14
505512 203857 14
863391 126214 8
223226 546198 6
243941 843256 10
267212 158699 11
427388 815258 7
325360 134919 11
396710 378698 4
477323 384551 4
879805 547494 12
858172 137586 8
397399 403186 4
219498 851932 10
354767 417464 4
275459 190178 11
351352 362910 4
264565 859237 10
371548 414612 4
240028 849354 10
176490 344679 2
293978 197091 11
108651 521409 6
220884 916718 10
167330 332452 2
77109 512651 6
102983 382712 2
398980 407667 4
870054 738900 1
857126 548151 12
222019 839774 10
188480 870646 10
679465 399014 3
181227 347052 2
618406 404239 3
389392 730768 7
610722 418243 3
821151 366545 5
808717 335740 5
323905 168029 11
419520 778231 7
265246 889333 10
696601 603624 0
906382 534459 12
846772 509036 12
588432 446279 3
710910 464586 3
345840 561591 9
331381 162660 11
305915 854818 10
848976 558706 12
664639 925795 13
496130 178113 14
800772 325023 5
811748 766105 1
221994 575146 6
424089 352640 4
264627 808661 10
870801 476330 12
660459 860658 13
483776 213021 14
873532 712802 1
263626 851699 10
277055 860813 10
604438 574666 0
895835 123485 8
368724 598412 9
850533 160136 8
853291 557685 12
514219 167014 14
615826 863168 13
627452 835854 13
649987 408293 3
730383 879136 13
485361 169229 14
864088 171351 8
820083 728310 1
665828 868934 13
125548 552424 6
184798 392233 2
332116 594868 9
855177 626376 12
235901 856563 10
628696 542447 0
392140 769924 7
623989 368662 3
491792 214464 14
460371 780609 7
240221 843932 10
177665 557923 6
564416 878492 13
327998 571265 9
533577 355107 3
148319 584541 6
428667 451233 4
903840 586229 12
568824 570203 0
804332 319006 5
166584 349245 2
171471 576787 6
842907 133992 8
407289 798870 7
680357 620811 0
576965 187481 14
118391 553625 6
597026 642918 0
799001 302014 5
330750 561657 9
881789 727577 1
801177 737548 1
403751 385539 4
401923 417123 4
308555 134011 11
753254 840123 13
786935 732999 1
847423 161535 8
112184 530469 6
626539 394908 3
512716 181316 14
347197 591316 9
826192 172906 8
110479 594587 6
605958 573728 0
805080 323708 5
594112 399331 3
843432 490725 12
664025 801796 13
387103 401925 4
133795 360518 2
609796 532982 0
452457 597461 9
636628 533309 0
854769 713941 1
566524 179796 14
246468 838071 10
433463 410297 4
759789 229116 5
847728 576707 12
823987 687499 1
125902 318850 2
798983 325682 5
812634 554848 12
860259 545444 12
376176 795539 7
571334 594145 0
679054 898217 13
541435 206637 14
501334 163002 14
800152 576217 12
856619 544008 12
261633 773355 10
335121 214149 11
295537 91032 11
828589 652430 1
402566 415798 4
429515 393708 4
207804 354938 2
170102 323164 2
601339 571609 0
601369 411415 3
520763 250478 14
722404 952207 13
833504 744564 1
863102 545783 12
672544 859978 13
147885 527813 6
146070 316860 2
433989 765343 7
844662 654835 1
857833 170565 8
158871 312380 2
638783 399478 3
469404 181944 14
423311 813081 7
119386 620549 6
883375 158482 8
669409 415893 3
566609 537592 0
228711 848090 10
585175 574133 0
827711 732798 1
676694 851597 13
330145 546705 9
376493 366302 4
691827 863963 13
168805 351913 2
103192 550021 6
572417 403906 3
295357 842293 10
172756 612694 6
582777 542670 0
613037 419086 3
165573 305517 2
625728 579460 0
117089 561455 6
532549 172894 14
507445 193647 14
800913 749332 1
825404 733788 1
859707 202806 8
379128 418858 4
674151 853540 13
683941 915579 13
417091 792545 7
795254 296488 5
442915 420573 4
325344 159885 11
245532 846331 10
313609 860065 10
591823 639096 0
805884 549492 12
158060 525533 6
545699 174099 14
816615 770855 1
230107 858332 10
336266 148507 11
869369 536868 12
662154 385013 3
363304 553764 9
600202 622079 0
342400 426090 4
577473 384210 3
161780 324523 2
268938 211870 11
757470 224976 5
819541 117296 8
680757 826912 13
228032 893055 10
620330 398630 3
820947 730529 1
454160 102568 14
795200 786424 1
338633 563504 9
819580 545900 12
597428 569940 0
635324 420555 3
808555 600511 12
844627 556401 12
366934 581294 9
289531 145743 11
224676 859348 10
132705 557674 6
668772 858570 13
173188 355248 2
603698 573585 0
516888 152451 14
233284 860085 10
310693 154278 11
424720 768456 7
824822 367091 5
331175 551842 9
791199 164843 8
400055 131725 11
419700 793447 7
848264 762550 1
329859 564384 9
198517 325721 2
852037 649724 1
296763 528676 9
605107 563429 0
404445 402466 4
182499 310438 2
860384 555572 12
840335 164912 8
855993 225023 8
658281 582264 0
828531 731300 1
456566 743012 7
400727 396769 4
244899 812192 10
293201 192871 11
664159 550946 0
655237 871554 13
608195 447380 3
124516 325289 2
489378 172861 14
258201 153095 11
472691 802678 7
793855 298525 5
361138 551307 9
510414 142485 14
672598 856928 13
837582 763266 1
751215 828365 13
805372 313397 5
391970 419802 4
300021 159185 11
426172 363147 4
409291 431539 4
266980 825990 10
563460 480559 3
576263 547239 0
318707 160697 11
246453 883061 10
850577 157049 8
823913 369439 5
858834 149259 8
134725 537440 6
810817 509540 12
139636 565984 6
843344 604964 12
441950 785934 7
130657 555545 6
852104 134678 8
399077 403968 4
601530 577183 0
622550 391601 3
495388 156422 14
240645 855514 10
620610 395343 3
304283 183656 11
868025 569296 12
284378 223470 11
179472 342273 2
197362 870337 10
377408 395123 4
398629 401626 4
505384 174535 14
327695 543105 9
544056 577786 0
674121 858589 13
830226 483466 12
797111 302781 5
805977 320805 5
345234 188822 11
781260 737962 1
709254 847444 13
286568 547471 9
442931 430123 4
142663 556520 6
794615 305632 5
601900 569391 0
589112 536573 0
257841 193878 11
815593 689874 1
862759 157988 8
567565 573952 0
789583 287700 5
331366 567311 9
135849 550612 6
626586 415166 3
449683 388863 4
394599 409068 4
146821 297434 2
411526 784658 7
158664 310765 2
223732 826580 10
139641 557503 6
658034 897179 13
608529 586311 0
300726 862728 10
802254 320673 5
800316 311699 5
612936 398723 3
159683 838958 10
417673 785965 7
123441 594415 6
838515 768484 1
405322 414743 4
324055 590810 9
788351 737539 1
171614 435530 2
318065 581616 9
883981 607581 12
317331 556086 9
417016 774869 7
851088 157432 8
790149 565157 12
148915 338914 2
892877 544283 12
561725 168220 14
130249 579307 6
159191 309314 2
210497 359835 2
600996 890782 13
246470 842932 10
242519 845811 10
545365 210090 14
803448 314797 5
297110 556485 9
258416 835432 10
862925 243856 8
797242 324588 5
172842 351663 2
411796 581307 9
148080 544056 6
678606 878004 13
370839 727884 7
353951 133923 11
244618 845420 10
185661 404482 2
509951 176794 14
579564 428498 3
417795 405673 4
131523 568207 6
840994 578455 12
183236 338163 2
831779 577161 12
146681 562995 6
219779 330969 2
516963 174184 14
808644 326320 5
308966 523409 9
833661 389733 5
841353 125628 8
855969 193497 8
257984 555707 9
347406 155708 11
403329 717870 7
141222 572556 6
822293 786837 1
343717 559909 9
339640 561426 9
850904 720163 1
874125 543036 12
508789 174256 14
801326 315779 5
499643 171625 14
813124 157130 8
377230 790154 7
488330 173837 14
169994 409806 2
396903 591235 9
315146 160782 11
672212 860894 13
95074 570002 6
270404 183080 11
824624 381716 5
48143 523870 6
425356 745471 7
190241 329582 2
611318 581584 0
251866 864044 10
172885 352621 2
319927 524637 9
312275 145173 11
141238 557986 6
669690 842110 13
227363 836593 10
802041 319504 5
250359 849451 10
424228 442208 4
606324 544357 0
490355 153464 14
514551 176526 14
333789 151168 11
156474 570384 6
585195 555011 0
152584 564548 6
478361 409520 4
369418 733394 7
859213 538040 12
667620 855461 13
674365 860819 13
333143 200298 11
165689 356983 2
806511 313841 5
803874 675499 1
501111 157402 14
670957 810768 13
618600 551446 0
860151 543055 12
513562 229098 14
521152 152439 14
160835 347784 2
318823 565345 9
854654 549222 12
160280 493497 6
408224 399767 4
838239 576018 12
601644 436831 3
498389 178069 14
836225 709204 1
604546 847329 13
817395 734126 1
859177 143273 8
495165 163113 14
840299 118907 8
334354 578047 9
186380 363938 2
161345 350804 2
825080 746712 1
789095 895634 13
803577 712231 1
871981 649086 1
683656 842406 13
167262 399527 2
799021 326404 5
402267 410395 4
601444 572693 0
624452 584622 0
861927 562723 12
415598 786499 7
152658 569277 6
280110 522025 9
383022 409854 4
407833 402474 4
376613 159699 11
871255 140340 8
296892 901182 10
267799 847911 10
344237 573700 9
630205 338054 3
228517 837056 10
601885 573083 0
424145 743433 7
878157 210496 8
604001 573587 0
318266 171979 11
335970 846828 10
807017 330432 5
324337 162686 11
363857 784086 7
749723 781756 1
587453 401098 3
533775 163036 14
458538 786673 7
422261 374345 4
618449 404599 3
391776 409868 4
344380 183817 11
507895 177445 14
913686 576892 12
350964 149159 11
688076 833905 13
393825 453067 4
798056 714380 1
244799 841688 10
673410 863889 13
859577 544625 12
311408 168232 11
860870 546516 12
880545 506175 12
187854 354777 2
605876 550640 0
837017 154170 8
336845 172750 11
805390 319676 5
860563 534839 12
619318 361696 3
683156 877209 13
372230 412488 4
614279 599251 0
508907 173787 14
803216 577565 12
787644 297715 5
798007 723995 1
822224 742716 1
841289 701474 1
394912 755947 7
517580 170329 14
341721 576427 9
873984 580836 12
306042 66361 11
798059 316113 5
848108 161786 8
230591 874855 10
423371 373970 4
844234 153197 8
481841 209337 14
205466 778884 10
414014 816460 7
124132 340448 2
411606 137378 11
269723 849664 10
838442 506780 12
137787 566189 6
678869 902492 13
338634 564414 9
437035 755506 7
668839 882598 13
803796 314893 5
282066 560178 9
845589 192916 8
773292 531652 12
825596 639465 1
417197 778243 7
321245 141627 11
181803 799487 10
824835 704997 1
340064 550509 9
841130 529745 12
601187 531825 0
793669 724513 1
324516 522674 9
830620 117906 8
456025 389630 4
256120 141529 11
296164 96874 11
802674 727804 1
878696 530134 12
334350 556417 9
412386 777312 7
467535 416014 4
170788 373545 2
127373 549518 6
415534 110526 11
410969 770451 7
718544 888401 13
509383 167302 14
165607 362883 2
358793 547046 9
266977 887963 10
878749 188759 8
320972 170417 11
159120 340829 2
400468 405703 4
333378 557892 9
798472 322218 5
856991 546255 12
422419 754048 7
614497 830844 13
363956 609339 9
278116 185472 11
407040 577739 9
456821 105575 14
679237 862389 13
247939 831010 10
871544 144135 8
500192 192292 14
314519 146787 11
309399 838744 10
333937 51121 11
845802 172285 8
854886 769396 1
117959 536156 6
595014 632844 0
156430 615117 6
893106 176595 8
814045 332998 5
645464 660478 0
142265 546135 6
141993 331189 2
704570 845515 13
635887 384511 3
565148 557305 0
691716 873426 13
835804 710711 1
558817 576255 0
470062 771204 7
685124 873363 13
809182 319115 5
800447 331643 5
735295 814058 13
177241 292639 2
176144 353300 2
366794 582584 9
407188 396576 4
419227 779215 7
363208 238649 11
257856 846423 10
109317 531425 6
838146 159541 8
800037 317963 5
364455 436191 4
822103 732911 1
582057 543124 0
850376 739749 1
391966 387214 4
257788 880587 10
800461 326821 5
333883 276840 11
628264 616214 0
260930 184935 11
679818 860064 13
516084 178725 14
783110 289805 5
884613 507507 12
584938 344365 3
194258 914691 10
244257 776516 10
595063 328609 3
699668 863774 13
532010 176195 14
524502 248106 14
629369 398359 3
822078 711840 1
168886 353913 2
801482 327644 5
171074 293610 2
814553 164190 8
229567 855332 10
721401 951880 13
350480 214608 11
584895 574666 0
220931 876605 10
886773 509047 12
782642 275308 5
393758 750953 7
138449 555969 6
606111 617846 0
769876 257669 5
882403 534710 12
172690 847721 10
777811 751059 1
151701 574146 6
101722 535117 6
410418 409414 4
492415 829655 7
361875 448199 4
415270 775605 7
292402 184441 11
243511 830743 10
411008 607342 9
359772 568428 9
253890 807676 10
808062 337340 5
321778 158339 11
488800 197919 14
489504 146224 14
611044 571814 0
143363 551365 6
606933 576409 0
437116 148591 14
598184 531473 0
115781 594942 6
799912 323363 5
841967 150890 8
158201 315944 2
856437 532452 12
171277 361020 2
414036 742189 7
533212 366954 3
104489 542515 6
889805 522039 12
575116 345564 3
443447 783977 7
876408 183646 8
144228 344974 2
311516 94189 11
506361 225237 14
179483 359645 2
814561 575281 12
245783 109229 11
225991 869734 10
632125 541413 0
373360 784232 7
613682 399434 3
906640 587296 12
622101 371771 3
392795 817694 7
338044 233264 11
94382 320888 2
332032 157725 11
186361 351075 2
608557 590278 0
125351 529954 6
459230 803720 7
105353 589239 6
397791 444527 4
617444 397675 3
813092 739043 1
395246 392783 4
797834 297329 5
241473 860854 10
81648 360080 2
196795 190277 11
693699 822637 13
664156 846474 13
862425 741010 1
368166 429422 4
418636 440000 4
615342 413931 3
860375 544804 12
653024 367312 3
170022 347877 2
388202 405780 4
505128 175022 14
415495 116126 11
615934 426539 3
274505 864723 10
182435 365508 2
367751 578289 9
902302 514170 12
424840 479570 4
489062 200329 14
392185 713763 7
436362 379677 4
856349 158150 8
804119 328544 5
894268 532597 12
166904 503121 6
858867 700187 1
417281 410881 4
690195 475150 3
118590 857150 10
801782 318281 5
306326 164202 11
180506 330980 2
878258 158631 8
482628 171320 14
399149 784376 7
257480 849037 10
398311 383357 4
412111 418466 4
801780 318992 5
801441 323812 5
793019 764859 1
619924 406713 3
407023 787385 7
302583 571881 9
376660 815936 7
474368 812039 7
324966 170021 11
406184 394506 4
310041 533285 9
333682 401078 4
872506 157517 8
318681 528806 9
612648 772280 13
397137 742547 7
178495 373915 2
403004 613466 9
318215 180010 11
398246 406245 4
477746 163845 14
178869 370161 2
797313 317527 5
244966 841126 10
682699 851115 13
695646 652231 0
247484 846372 10
599870 591110 0
365927 571713 9
333901 532836 9
186536 330019 2
145282 391482 2
656477 573007 0
655201 411873 3
872057 122354 8
624599 417673 3
457033 127590 14
284757 175853 11
843833 170416 8
604678 574577 0
681608 436537 3
864185 161232 8
245118 811283 10
679747 860939 13
641840 886745 13
674433 860605 13
617310 551945 0
823589 728083 1
546166 423311 3
138012 558263 6
607665 447516 3
173978 346514 2
666135 430421 3
868375 161990 8
541455 223176 14
855074 542557 12
845798 213118 8
445043 152257 14
624343 403629 3
509279 180548 14
797178 310439 5
665660 828338 13
79285 554817 6
851840 110475 8
461751 817277 7
375997 806621 7
474135 199330 14
514876 182995 14
315670 160928 11
305901 166656 11
388743 388465 4
346717 178180 11
533566 214619 14
861631 169376 8
613536 395801 3
649968 371445 3
446537 828924 7
378697 591764 9
430167 811490 7
417494 392231 4
430747 776261 7
231781 799444 10
149760 577278 6
407576 434017 4
139146 569516 6
810467 706465 1
142886 556511 6
804038 306622 5
796953 726378 1
602887 595245 0
894124 202052 8
866878 501919 12
623498 399288 3
165945 345849 2
222445 891438 10
206519 355629 2
286663 846902 10
821835 564313 12
412227 787450 7
357813 572855 9
871556 194747 8
842786 614034 12
429653 438596 4
345903 561314 9
347492 153416 11
58190 608304 6
857972 160214 8
610698 396326 3
602335 433298 3
223550 323197 2
633304 366062 3
842719 506205 12
862534 547936 12
397561 815245 7
243331 844022 10
611954 360938 3
600679 599545 0
791722 162000 8
283786 133973 11
180519 368284 2
673071 856021 13
237750 837381 10
416359 786189 7
647103 573853 0
232357 810798 10
826465 646980 1
460133 173081 14
311433 134432 11
350117 535859 9
883864 111281 8
846622 553552 12
803464 329093 5
640210 902029 13
898916 630099 12
275524 559548 9
820367 732364 1
412109 735920 7
600007 377908 3
851280 156049 8
610980 522819 0
340970 564831 9
321312 574721 9
241545 838673 10
321262 178491 11
616468 394118 3
240213 118409 11
824674 806300 1
207217 878249 10
885828 586348 12
657450 365008 3
496491 171534 14
680828 839011 13
234091 876039 10
321522 163852 11
699124 824089 13
627727 578737 0
889975 589361 12
516128 178722 14
171848 343242 2
264293 890923 10
801174 320442 5
480787 147737 14
265815 540385 9
119535 551857 6
877906 722361 1
701017 931252 13
320821 165455 11
858042 178196 8
800655 320227 5
811391 343836 5
614877 402442 3
149269 341445 2
320628 564596 9
603126 497987 0
525670 184762 14
396540 815936 7
297731 175876 11
697011 856357 13
795527 315510 5
378648 579579 9
528011 201615 14
679799 858680 13
390182 360941 4
324440 567074 9
397918 462032 4
663049 843538 13
290107 571927 9
353583 554147 9
872781 154295 8
606738 601356 0
186914 361706 2
617296 386864 3
486034 196122 14
855852 134834 8
900360 153622 8
332562 174699 11
171986 429306 2
871780 158486 8
729194 856897 13
169569 346955 2
857648 511640 12
679242 853941 13
320400 160020 11
675013 876331 13
664903 839150 13
422776 808328 7
569197 559307 0
871873 509094 12
416763 96639 11
520782 134308 14
154268 542573 6
491614 778997 7
438860 114065 14
874643 729921 1
394846 407130 4
299772 828655 10
885963 528959 12
163956 833732 10
680969 838864 13
161387 343617 2
683048 937776 13
138199 541774 6
846841 533595 12
804408 337683 5
400380 588221 9
830445 186055 8
839339 726322 1
629789 426313 3
159711 352701 2
473202 140745 14
298979 774144 10
523796 219588 14
812240 177846 8
368060 76739 11
162975 335389 2
211265 396792 2
245707 844466 10
221706 875060 10
162713 586568 6
663820 416308 3
559877 401053 3
109912 565003 6
547076 156969 14
684568 380640 3
796609 319691 5
373943 376926 4
615649 429323 3
461701 188438 14
450030 169537 14
773955 239849 5
834173 386159 5
349955 535578 9
822670 689090 1
136606 562296 6
331987 568997 9
369490 164369 11
169293 348686 2
105945 528795 6
830583 710990 1
803603 327255 5
206219 604081 6
800694 316789 5
155430 549012 6
675858 410545 3
867533 542290 12
238084 844799 10
286769 862152 10
147911 328024 2
854996 81095 8
480128 785580 7
850538 160159 8
160222 380591 2
674521 861127 13
626811 372435 3
185966 359964 2
374797 407601 4
84501 604671 6
651216 815098 13
638004 837697 13
822025 749214 1
411674 402377 4
383855 390984 4
902529 162041 8
828194 742074 1
332246 172932 11
151164 332239 2
166799 318482 2
146120 576624 6
127858 609681 6
157181 346842 2
407565 766203 7
188992 563992 6
334980 143900 11
555429 604551 0
808440 729985 1
805089 762512 1
778867 140736 8
94933 588147 6
692386 863386 13
229970 878786 10
93136 613387 6
383878 376230 4
534702 244239 14
166654 350678 2
394436 450912 4
846257 145306 8
404220 785798 7
425053 790566 7
453154 776082 7
274554 845338 10
700747 821557 13
420792 430901 4
234837 151054 11
800394 301473 5
628715 434772 3
597418 538362 0
597173 575538 0
860986 140320 8
615175 397627 3
399460 399410 4
340545 568654 9
497255 188783 14
804251 329956 5
808489 317021 5
271093 861412 10
394018 799506 7
363932 228249 11
588952 437524 3
849118 571562 12
862117 600081 12
316642 553340 9
891515 520429 12
834165 140684 8
165158 343946 2
816852 352965 5
784291 581417 12
166449 363036 2
810502 336169 5
818119 348676 5
639418 537903 0
469139 810971 7
858057 542933 12
869288 168662 8
665965 449273 3
910435 171155 8
518675 175686 14
265125 820661 10
519113 194925 14
554938 347875 3
620955 389692 3
848135 130674 8
790395 300024 5
265299 859533 10
796353 710294 1
326251 549298 9
512291 169608 14
221233 538472 6
851166 532382 12
302266 185591 11
870139 566584 12
225916 843329 10
853692 746285 1
838609 140215 8
520809 176718 14
399346 423786 4
726847 875488 13
895680 609341 12
345069 165968 11
405652 622938 9
783666 262902 5
791983 298565 5
645171 595209 0
177246 571940 6
435926 408504 4
794667 315069 5
881106 105566 8
140876 334435 2
672387 800443 13
608182 416637 3
399717 403257 4
254411 848090 10
810543 341180 5
813319 737376 1
233105 591646 6
586097 567445 0
545240 221008 14
175169 349454 2
631316 837043 13
514739 189624 14
345976 148333 11
324488 180658 11
813436 360446 5
336991 217448 11
841045 738224 1
825395 715780 1
680646 375662 3
129550 560106 6
802111 320817 5
850451 764015 1
835030 668528 1
549384 208450 14
822425 727248 1
142455 343512 2
592924 393730 3
841654 764836 1
866051 172932 8
757421 774445 1
680677 868629 13
779437 281959 5
877125 161227 8
604554 393193 3
163091 350167 2
375353 117180 11
520878 209094 14
866973 550375 12
857231 551055 12
602167 543919 0
154412 310120 2
839445 149778 8
405325 407466 4
822722 553764 12
851216 516166 12
551236 401856 3
828001 524067 12
433100 134861 14
414290 393146 4
111174 539350 6
857363 154639 8
814317 333112 5
473361 185066 14
141771 551655 6
823065 733789 1
282430 560217 9
780153 136449 8
306540 193434 11
821909 728448 1
619415 397644 3
385804 393101 4
227138 824372 10
608711 373665 3
843905 219401 8
817135 349925 5
508797 176269 14
802012 318315 5
398153 407081 4
801493 322249 5
625919 402984 3
865754 723314 1
804925 735492 1
388873 746909 7
854753 190254 8
563763 559454 0
605250 573272 0
693783 860206 13
418140 415328 4
244743 830888 10
846936 161313 8
867993 162841 8
401730 354294 4
404288 349685 4
630706 388370 3
396617 801039 7
334785 565575 9
853093 586321 12
412861 434751 4
688098 908495 13
438437 730300 7
720629 816515 13
794991 291216 5
418149 790096 7
589862 418742 3
514408 173338 14
258528 856273 10
155505 355581 2
800845 311838 5
235041 823732 10
604352 573425 0
395274 786698 7
881571 532467 12
818622 370753 5
509554 186931 14
860473 545982 12
905936 150106 8
861656 545794 12
337173 557853 9
684739 884934 13
864265 549505 12
127134 379827 2
327973 534972 9
168573 350387 2
354529 573677 9
756701 207223 8
107160 530936 6
241475 850889 10
537514 179689 14
335029 553213 9
764997 249477 5
834036 144156 8
182751 435819 2
257926 936947 10
667249 417107 3
819843 570485 12
626371 349696 3
169966 368623 2
663095 949045 13
388806 569524 9
38179 532155 6
806087 326636 5
680579 836946 13
608298 573748 0
560393 389490 3
616060 590779 0
414951 852935 7
851644 721350 1
177505 332053 2
861381 546835 12
176506 351827 2
877835 151890 8
113068 317574 2
847292 559228 12
457338 789952 7
613868 585089 0
260096 530550 9
803370 318247 5
597551 556737 0
319829 168353 11
241687 844256 10
392660 395873 4
483807 198925 14
265430 151883 11
603193 371867 3
576235 462612 3
650720 817440 13
241381 844402 10
844357 163402 8
616044 533807 0
648443 845340 13
467144 147308 14
505044 180646 14
279251 184486 11
862569 719773 1
688015 533535 0
819670 183364 8
225356 318394 2
172662 388185 2
860927 110775 8
560362 567914 0
920249 551171 12
496658 816784 7
446368 763341 7
400538 407020 4
804702 315881 5
342901 582886 9
339981 565418 9
858703 157931 8
152861 407965 2
192775 350028 2
545235 539822 0
338342 566864 9
419118 421655 4
170155 343568 2
662249 918050 13
684131 898331 13
414448 429790 4
421352 799127 7
170837 353968 2
801810 728106 1
619239 400025 3
622407 583192 0
846594 522941 12
95071 503965 6
536623 213083 14
158750 312102 2
481083 151953 14
816955 747629 1
652233 886054 13
405470 392374 4
797569 321799 5
674496 870664 13
139474 569485 6
851010 157593 8
477901 173288 14
817777 724927 1
623248 399928 3
341016 545280 9
794956 309980 5
408992 462226 4
142575 517378 6
229280 813483 10
124724 459999 6
889142 154467 8
405714 781619 7
283571 109326 11
550086 442382 3
856029 730586 1
393659 439272 4
130201 562734 6
869818 543227 12
408182 408351 4
598634 619900 0
621989 394856 3
179609 408365 2
367048 553451 9
347630 120931 11
846741 539481 12
377758 413906 4
375971 427549 4
603055 589818 0
383044 180418 11
502302 210265 14
836727 737798 1
312558 520650 9
824475 518063 12
832621 150748 8
445199 763833 7
872033 558924 12
803369 698753 1
514934 219169 14
307107 174760 11
304556 568584 9
445674 768552 7
814249 488483 12
821079 800206 1
336787 538925 9
274685 883097 10
848770 111076 8
340383 600071 9
284031 566654 9
616054 371666 3
188985 367645 2
400473 408327 4
576158 210283 14
139978 587153 6
680506 840053 13
514722 190943 14
605650 447537 3
508080 175697 14
849681 125345 8
849501 552769 12
683610 910782 13
224694 848663 10
179189 536028 6
895623 178393 8
568546 564911 0
411090 435389 4
700341 869730 13
352424 557574 9
156984 430950 2
405902 394724 4
416926 785113 7
788020 765562 1
621622 390298 3
803959 315173 5
341446 538787 9
617493 379303 3
170425 316185 2
509651 149290 14
227582 856861 10
486422 178919 14
346942 152780 11
837307 548214 12
121650 599844 6
505079 219082 14
401411 414503 4
235084 818866 10
609344 448128 3
398498 776720 7
145758 562414 6
794640 313497 5
864211 216526 8
610505 851476 13
619475 400592 3
97216 564094 6
383894 179880 11
868128 568529 12
613545 574733 0
803386 318982 5
112673 516997 6
294492 832336 10
335918 566525 9
414512 793966 7
174834 411644 2
832651 373469 5
451853 420873 4
292194 906490 10
572244 349463 3
152054 345632 2
476144 772131 7
852918 552112 12
835581 147664 8
112379 547679 6
814108 344096 5
294326 807584 10
242247 864253 10
422736 790806 7
715956 900724 13
634661 446187 3
801301 316893 5
605073 372055 3
603445 630598 0
328851 147002 11
180493 319750 2
141699 530028 6
560237 500154 0
113321 606322 6
344096 575522 9
232047 522748 6
434815 388041 4
140121 346875 2
474648 778810 7
713088 880834 13
765502 240340 5
325767 164095 11
654937 781879 13
344791 578536 9
102221 374657 2
432892 815223 7
832238 725434 1
815455 755486 1
348171 569251 9
295375 861990 10
105193 596017 6
817410 346944 5
850046 108829 8
146072 288800 2
852503 146551 8
389713 772742 7
310591 841778 10
332270 556288 9
614943 540976 0
416019 787562 7
513957 139202 14
154162 536416 6
260922 785987 10
504755 150226 14
816054 733183 1
166973 341636 2
857283 548467 12
115363 305575 2
425019 759577 7
801997 319385 5
211584 591058 6
383032 788008 7
421187 779726 7
687325 883004 13
395168 404189 4
604973 574773 0
874672 104851 8
512900 219252 14
639502 371440 3
688712 568754 0
238524 842928 10
410917 614521 9
893991 544467 12
870214 556246 12
256889 880721 10
349378 805118 7
879902 518647 12
593601 445149 3
823740 169808 8
130440 562623 6
314791 163370 11
206561 574789 6
868442 160118 8
799667 316830 5
630904 404643 3
282957 179982 11
533799 564377 0
663945 828490 13
486326 174643 14
829398 724900 1
684558 878573 13
639613 388524 3
185071 362905 2
324442 567881 9
677551 860007 13
875410 128878 8
269483 848608 10
382222 441817 4
312726 853829 10
694897 834591 13
335525 567445 9
595215 391491 3
646816 829778 13
387951 813315 7
867125 168762 8
683585 905984 13
321517 569562 9
504511 149234 14
866987 154415 8
210499 526471 6
788776 582930 12
673242 886958 13
627679 395601 3
245602 857160 10
808686 332209 5
174878 362329 2
236207 886769 10
424023 737453 7
169880 343122 2
136967 565662 6
550216 184337 14
159654 381778 2
386377 574187 9
510901 175806 14
587466 564953 0
179240 577011 6
319838 170383 11
838978 622330 12
136059 558213 6
846256 154064 8
600582 599535 0
683252 858182 13
383992 398245 4
160922 347681 2
184570 360446 2
663578 586265 0
140989 537156 6
161448 373412 2
427810 400178 4
107965 535173 6
674134 908464 13
201324 574588 6
541976 512639 0
415672 787824 7
682304 876841 13
659734 844127 13
406739 400918 4
417146 822655 7
869718 536928 12
142899 329415 2
797009 293194 5
380281 205779 11
620438 511694 0
439793 740773 7
138525 534268 6
76052 360840 2
559076 190770 14
836647 167267 8
307605 840195 10
140101 341028 2
165284 425978 2
519962 175210 14
855656 162100 8
876782 536438 12
832589 782799 1
155899 561715 6
877711 703850 1
325883 560492 9
839514 728923 1
856924 169071 8
811913 325091 5
900991 497149 12
591955 378142 3
808452 320117 5
843111 581603 12
321775 164846 11
361227 221878 11
511030 221292 14
427371 819417 7
653181 886417 13
775604 274485 5
804630 332333 5
888504 147016 8
659081 860560 13
244027 850132 10
563517 391159 3
246182 840370 10
598053 438963 3
175781 341039 2
682481 879399 13
866139 717138 1
846371 578530 12
878519 606677 12
384225 784381 7
925485 596955 12
700962 927047 13
390538 157197 11
401162 412142 4
136569 532130 6
426625 475977 4
895723 126593 8
241849 815141 10
459328 805961 7
895245 150977 8
546031 570429 0
620213 574468 0
188093 324040 2
244049 817710 10
402227 414685 4
424782 449687 4
380236 460907 4
872516 217570 8
155943 576199 6
830065 739162 1
317675 838127 10
671919 571761 0
810657 329468 5
162124 500069 6
857846 153281 8
859703 156782 8
804936 148980 8
142767 538646 6
288068 561932 9
571669 873544 13
201753 569116 6
678195 860537 13
852687 540692 12
238328 770068 10
605284 556134 0
139601 914203 10
239505 885057 10
840406 538772 12
395641 808571 7
795205 316433 5
402109 430185 4
648230 857418 13
139911 561185 6
796943 674692 1
594010 570095 0
163925 576666 6
279008 521035 9
653325 396810 3
169069 348929 2
792179 148539 8
665048 854911 13
662830 420955 3
370252 347498 4
840943 739611 1
382419 110392 11
910683 612854 12
604415 571400 0
171461 348130 2
247613 815836 10
807409 325526 5
380609 185976 11
319283 158983 11
819737 737829 1
371052 147369 11
179224 584189 6
173847 514665 6
98675 580608 6
815298 167390 8
340693 569371 9
159302 337993 2
253655 821946 10
605899 412428 3
224288 931476 10
561574 621747 0
414317 828815 7
486997 164803 14
801586 318947 5
408500 393942 4
636871 929410 13
327204 152871 11
350798 535657 9
838808 524944 12
786227 765634 1
674114 970756 13
723173 872525 13
153583 352282 2
409628 833942 7
306421 145493 11
108512 525986 6
577242 574073 0
404782 557913 9
161273 347538 2
700340 335010 5
502877 192740 14
163981 344090 2
828478 655405 1
827802 189078 8
601599 388540 3
643965 366316 3
796916 323332 5
610666 551701 0
405569 411933 4
203667 577260 6
192564 547558 6
328331 541094 9
572029 518313 0
251032 876118 10
605891 428146 3
853439 518568 12
796375 309563 5
408147 436628 4
418618 811618 7
672266 862875 13
249209 801933 10
610026 444858 3
860387 157731 8
776000 780347 1
841843 503359 12
359831 554975 9
822616 735941 1
325958 573367 9
689363 817577 13
275288 212315 11
470314 178936 14
308066 145825 11
876151 582116 12
352220 602793 9
393828 404314 4
778965 282290 5
555904 640401 0
769546 554722 12
308763 166511 11
797804 715342 1
702654 841548 13
865020 550686 12
639463 847461 13
247892 115217 11
289087 565427 9
241633 846949 10
344482 215846 11
178005 594957 6
840270 725456 1
457554 795861 7
644693 867371 13
800304 163436 8
696144 548705 0
287966 150135 11
247997 878582 10
551867 170425 14
806888 492319 12
846752 613846 12
396556 406492 4
154620 576738 6
372424 413163 4
838276 395673 5
497454 172375 14
775555 719683 1
799794 315080 5
168443 367928 2
337298 565486 9
549945 372313 3
863706 491401 12
636291 360636 3
392258 405478 4
407626 771304 7
588933 366439 3
690018 819280 13
615239 317684 3
782368 759352 1
598628 425191 3
895565 501871 12
684602 823981 13
397158 370362 4
202011 337353 2
633601 861482 13
236495 861569 10
230049 865536 10
658735 399039 3
694451 863981 13
216209 437830 2
248779 111087 11
228611 836717 10
779897 279572 5
302582 134124 11
814401 341234 5
69169 631490 6
788166 702817 1
673826 880137 13
749941 916922 13
300672 175844 11
345164 579614 9
417515 787648 7
617118 374098 3
755829 751858 1
117585 391892 2
391384 413273 4
222356 840843 10
860520 544023 12
137451 555339 6
291228 101272 11
412541 806622 7
516085 195504 14
402031 426039 4
883062 547498 12
841096 188742 8
212009 864463 10
875311 542259 12
618053 357534 3
844066 546029 12
485110 150541 14
842576 153072 8
573324 878802 13
357923 192120 11
383821 808301 7
851282 153750 8
278326 829095 10
348773 583528 9
850478 566230 12
519396 177174 14
879500 590791 12
237120 856814 10
341966 561987 9
525967 565687 0
137098 384889 2
510496 174308 14
399587 792459 7
169502 411323 2
182239 333302 2
787988 741203 1
818079 108536 8
267478 894783 10
508099 175066 14
602667 575857 0
613840 534167 0
240846 841609 10
129030 588495 6
810775 160434 8
663168 859429 13
882306 173836 8
593887 210595 14
340191 567638 9
425611 793420 7
141860 324304 2
802814 320130 5
520952 169184 14
828276 762021 1
187894 871219 10
504373 165819 14
270729 67329 11
493897 189627 14
369249 797068 7
838328 185708 8
321620 169950 11
628655 321099 3
190725 336160 2
849248 164090 8
634800 823669 13
407694 718592 7
185919 363092 2
116860 550810 6
806982 316680 5
347638 429109 4
338950 572545 9
822156 732296 1
829229 143653 8
465734 114090 14
174410 372064 2
799291 317500 5
416750 435776 4
259173 548593 9
268518 181514 11
174057 358906 2
129664 341196 2
378563 789670 7
849653 143827 8
816840 539239 12
677769 841641 13
673332 857517 13
627968 574625 0
593166 622725 0
883567 161769 8
898736 548642 12
851568 114049 8
634383 422065 3
809917 762429 1
782506 279930 5
367079 183232 11
832372 600070 12
878690 739021 1
415233 441297 4
520819 181586 14
818668 120458 8
629004 392271 3
134449 557556 6
799275 324108 5
392162 355397 4
387461 394402 4
790932 305223 5
656834 885944 13
307300 836132 10
452791 156805 14
825070 734215 1
426689 788562 7
384922 582877 9
592620 446156 3
332237 911313 10
392046 391220 4
139451 549580 6
427749 457110 4
179834 541387 6
861364 598127 12
428513 456990 4
913298 162009 8
556780 409205 3
804190 320706 5
557378 567033 0
222727 770963 10
593689 316888 3
322101 164171 11
605100 573307 0
290700 196285 11
380139 434251 4
651828 468138 3
887896 558572 12
925732 210388 8
836739 162321 8
683413 861559 13
823856 749355 1
864059 545894 12
411957 397796 4
495032 203929 14
813173 354777 5
866044 584750 12
256216 903741 10
682241 850176 13
419151 577335 9
665697 929571 13
336549 565597 9
496476 140337 14
161154 538355 6
366688 562413 9
607440 403119 3
537211 376777 3
403160 392159 4
637332 414017 3
765011 607246 12
823417 701523 1
848628 503773 12
578804 573582 0
854338 135067 8
862679 188399 8
474516 189144 14
487952 168607 14
626334 852383 13
858934 162874 8
805035 317469 5
605850 533310 0
198823 538624 6
849327 548496 12
473485 847098 7
274495 182470 11
821895 732158 1
601390 453925 3
801662 318423 5
321657 538660 9
597421 554767 0
248210 886338 10
803057 331037 5
817252 730254 1
873742 448214 12
353335 592567 9
243951 865415 10
635242 356290 3
658748 777680 13
244246 847589 10
674463 862486 13
813791 334609 5
225567 853078 10
283576 809069 10
382693 749680 7
137172 523482 6
340066 152500 11
358830 431609 4
589180 595099 0
134695 350397 2
648429 422590 3
363075 162238 11
819256 201704 8
852410 187705 8
353979 578923 9
650054 432740 3
793560 285392 5
181561 358111 2
149863 284721 2
850674 533083 12
297212 546223 9
232246 844226 10
807072 687932 1
331795 529654 9
357737 597104 9
893145 551400 12
800041 318331 5
183516 374212 2
840425 762290 1
228715 837572 10
865030 541150 12
923996 594948 12
829747 530312 12
348847 425164 4
861193 573954 12
256316 818886 10
197463 378513 2
175766 380534 2
650661 861267 13
821337 733356 1
612485 518009 0
919544 541255 12
567428 580005 0
289176 571435 9
865489 548920 12
101427 615890 6
169145 355279 2
657455 567754 0
897131 604582 12
859419 546754 12
337811 558454 9
505293 194591 14
250198 825417 10
325279 168587 11
418410 795929 7
279010 181792 11
334549 579199 9
393903 387227 4
399858 403574 4
593061 579188 0
344710 213543 11
352874 807952 7
344364 213940 11
887269 166179 8
683098 847245 13
666636 858686 13
246753 175170 11
111476 358647 2
338588 543875 9
707894 904500 13
139460 557260 6
827192 785316 1
839094 159543 8
849003 115373 8
365567 547606 9
675866 868784 13
820238 732928 1
297022 574097 9
192460 388323 2
856561 128799 8
241005 825301 10
818932 728481 1
239344 814789 10
320210 191459 11
224225 376975 2
434581 123267 14
610330 552628 0
338717 181582 11
506288 177990 14
308726 371721 4
860845 155375 8
829133 735488 1
294275 174786 11
351459 565704 9
308748 199866 11
668502 563937 0
429472 860855 7
430243 781020 7
473933 191767 14
183970 355973 2
844088 150085 8
839493 521150 12
409167 449719 4
443618 157237 14
487472 166999 14
290210 818593 10
712262 856869 13
232331 872896 10
806131 312752 5
375619 553791 9
809623 734937 1
848974 199427 8
853874 560250 12
865489 161762 8
808779 732990 1
671269 590258 0
321905 573147 9
639394 576728 0
371498 393120 4
680228 843225 13
790712 745884 1
195151 317753 2
578509 923881 13
599612 859210 13
779936 774397 1
69565 599820 6
507741 178883 14
799903 784535 1
279923 805957 10
858819 544904 12
147664 559632 6
226433 837646 10
390282 789593 7
353939 570931 9
608309 377530 3
535034 172649 14
94458 533883 6
173576 507309 6
349296 557688 9
410506 395586 4
642881 403147 3
326040 156509 11
817441 709397 1
607084 595500 0
895127 152283 8
839121 736259 1
177579 319865 2
344915 702496 7
303269 531608 9
835428 731189 1
204597 863162 10
873474 159567 8
524397 239456 14
541498 192746 14
204854 810013 10
631633 337973 3
245678 821691 10
155508 372355 2
186380 487625 6
824322 744720 1
677983 890077 13
600665 638890 0
511868 170991 14
132497 593125 6
347522 587567 9
137657 611252 6
783491 288029 5
860863 546060 12
825997 730652 1
412388 784064 7
804013 316083 5
139237 548782 6
490271 216725 14
403365 215735 11
681049 846975 13
853554 158012 8
961951 577029 12
355168 114823 11
861563 661642 1
606587 573873 0
504243 237336 14
417231 381303 4
446538 180119 14
179830 547383 6
332586 566187 9
509039 173839 14
815131 704478 1
268926 813783 10
674659 860894 13
832886 781206 1
494698 176711 14
381863 416651 4
484407 809641 7
318738 182134 11
418086 394699 4
595580 798572 13
844400 150812 8
687360 862438 13
809054 345541 5
874110 541972 12
689948 850548 13
664260 859029 13
838587 700545 1
844617 499013 12
330455 568758 9
838142 156770 8
830658 368694 5
600117 539079 0
471328 176297 14
436641 55171 14
912023 160368 8
371685 151612 11
350056 566657 9
148749 359845 2
900955 185733 8
170494 560892 6
320718 158610 11
360703 150999 11
529931 180136 14
853562 531620 12
374117 546122 9
396548 784388 7
905849 524809 12
143592 606949 6
714443 433876 3
832758 707452 1
331212 162496 11
683027 876064 13
793892 313943 5
607604 573951 0
844536 424646 5
802784 313853 5
197849 575524 6
622212 860015 13
545455 182232 14
825605 167750 8
340996 170964 11
803701 321815 5
876863 176593 8
153738 360530 2
337894 175289 11
506012 178372 14
472917 830363 7
327608 177638 11
588964 597435 0
198251 335402 2
337343 156614 11
801588 319814 5
451753 383440 4
285865 167818 11
157138 565993 6
389868 410718 4
159271 568953 6
249370 872804 10
877422 134877 8
851462 526597 12
414860 773921 7
668519 860048 13
636769 854047 13
868736 179354 8
322789 137560 11
827169 708345 1
141991 539522 6
224789 866804 10
121786 564225 6
202913 525966 6
225846 874086 10
606506 766728 13
655859 416496 3
618676 377015 3
335476 183897 11
697959 614701 0
303637 570253 9
629377 853726 13
830450 393096 5
596179 529556 0
491145 206344 14
335003 151395 11
625579 551084 0
819058 729125 1
837312 572687 12
339967 562602 9
803457 735855 1
667639 571164 0
414997 432597 4
879104 595389 12
587478 424878 3
129997 568115 6
165104 543395 6
308616 811021 10
247855 794626 10
328425 159826 11
706906 885612 13
353749 391896 4
906396 535803 12
375573 809249 7
869087 153957 8
266111 813259 10
855233 141357 8
588100 557588 0
179931 536588 6
375233 399429 4
130157 581286 6
592804 584539 0
623386 387031 3
294832 124284 11
798321 319665 5
849777 531138 12
407814 765816 7
807913 737341 1
819438 662327 1
426040 825049 7
865170 173755 8
800231 732106 1
836450 151205 8
625784 441883 3
813645 328765 5
234219 845270 10
155625 262321 2
392728 411341 4
126702 351222 2
573969 434110 3
410601 410653 4
127202 525948 6
853279 560714 12
599215 391457 3
324032 577807 9
198415 321418 2
401478 785370 7
413894 564459 9
854374 550707 12
291782 159562 11
820253 714625 1
637323 549567 0
434717 808225 7
603945 361794 3
616329 529516 0
398724 404179 4
854037 528890 12
880362 706363 1
322209 547247 9
565483 551512 0
360945 167952 11
495995 160032 14
140612 350010 2
523329 404632 3
137516 556818 6
182093 321311 2
347079 803582 7
86243 559135 6
403522 785432 7
673196 812941 13
641031 593074 0
521006 163218 14
912649 498734 12
137740 618961 6
777697 798253 1
502355 164119 14
695010 449565 3
856167 542249 12
613719 382828 3
611547 411952 3
621241 368090 3
187314 815820 10
343119 382074 4
197735 355477 2
801511 761094 1
773023 251826 5
434080 785264 7
408283 806161 7
883231 232031 8
906772 510158 12
812869 346251 5
797787 301470 5
854412 725575 1
332853 168141 11
432656 783776 7
819768 346596 5
658199 568743 0
604737 574591 0
799197 314215 5
351883 890475 10
137316 562151 6
293864 241877 11
659046 930099 13
850057 157848 8
411488 837715 7
599766 409755 3
884966 133900 8
617428 397343 3
797233 713358 1
439145 407748 4
360143 155270 11
807278 566392 12
365147 790525 7
708244 871834 13
497211 174121 14
609286 586782 0
731712 878998 13
849537 157510 8
514622 206979 14
801313 300606 5
609091 437020 3
98533 355691 2
857620 709386 1
676360 866112 13
843715 568319 12
858278 544519 12
869471 745767 1
611579 407670 3
673292 857105 13
324444 166910 11
832490 450680 12
693362 837786 13
319208 164182 11
500589 181466 14
238308 790723 10
267521 119941 11
505603 147517 14
850959 157920 8
801080 318049 5
676480 860779 13
203254 362605 2
499637 194036 14
604294 574368 0
393424 399084 4
738190 371970 5
577167 617095 0
804871 317801 5
414377 771258 7
158773 588778 6
825429 732758 1
603566 410391 3
158596 562634 6
571692 449353 3
424375 721868 7
416855 794023 7
418155 819422 7
261819 863523 10
613921 394043 3
843813 182032 8
317217 163896 11
145867 363616 2
341329 565571 9
606300 566708 0
418996 389541 4
276792 141848 11
312386 555195 9
779956 271501 5
613191 571942 0
271205 817620 10
317136 563479 9
343247 564376 9
507473 227670 14
691600 397893 3
823455 747394 1
887780 536497 12
595193 576508 0
397618 404912 4
262846 559590 9
412677 786951 7
229131 842806 10
800272 316170 5
417393 771537 7
114108 540537 6
401240 354085 4
673750 594081 0
256073 917590 10
801526 705057 1
358384 556361 9
115287 602637 6
798612 326404 5
359352 162962 11
830805 370801 5
255185 825960 10
619295 397643 3
672565 564468 0
210102 333312 2
137699 556769 6
133094 557996 6
373684 418326 4
892423 530999 12
117874 389929 2
361814 411086 4
829529 375007 5
221002 870506 10
278929 842054 10
833716 758772 1
246047 846189 10
122130 568886 6
846693 429031 5
321822 187102 11
803377 319212 5
810903 332925 5
170688 343596 2
413549 408517 4
296775 572432 9
684091 842566 13
271123 163465 11
381617 157000 11
330127 570072 9
330881 579058 9
448519 805219 7
362753 369848 4
515348 184750 14
269126 508814 9
437958 784801 7
214966 358837 2
325861 203058 11
271424 251323 11
854922 159650 8
378274 816341 7
396520 405610 4
406233 813072 7
850925 157811 8
150009 371014 2
806626 318966 5
589900 217899 14
569692 182365 14
805089 96540 8
825141 535997 12
837457 518745 12
797594 302109 5
467107 817914 7
367864 442851 4
330533 214555 11
356739 417826 4
473514 788780 7
377858 811790 7
281979 518199 9
285258 848668 10
363437 77975 11
425796 795608 7
589344 563119 0
258779 106777 11
879309 561548 12
448231 384406 4
624328 392133 3
838821 563842 12
618869 577243 0
176433 350561 2
136418 562926 6
198294 552987 6
796952 318633 5
916082 517633 12
870630 516603 12
506142 170513 14
138349 554238 6
251070 877802 10
213775 841758 10
672068 874862 13
578496 631434 0
178319 318244 2
806567 140259 8
509928 184873 14
870247 121460 8
808153 737136 1
321344 166633 11
608747 363132 3
166323 352927 2
809453 736879 1
120357 560737 6
289423 559134 9
537836 177165 14
174438 319075 2
241166 845204 10
823618 734216 1
334016 562797 9
646422 900526 13
380202 396671 4
384591 137729 11
252586 806474 10
565829 395454 3
468907 448885 4
141924 558399 6
202175 495076 6
863042 557890 12
155274 552551 6
403852 792473 7
223408 520131 6
415993 776671 7
295311 115000 11
820675 168154 8
644843 838626 13
801551 320544 5
642843 909185 13
583653 652182 0
864494 136669 8
623502 420376 3
348263 386451 4
800390 309948 5
666315 872311 13
844086 531300 12
801456 320080 5
336336 563145 9
310824 144943 11
149054 556986 6
357467 797530 7
352209 548608 9
506069 169723 14
500225 177559 14
397806 749559 7
642157 345545 3
682100 853708 13
802237 318526 5
480571 204150 14
543616 144788 14
657879 857942 13
389520 406500 4
790206 747165 1
386436 791388 7
818739 545052 12
802738 312234 5
339137 160334 11
839974 154358 8
136531 557658 6
575440 568511 0
289719 866638 10
862334 747768 1
603855 575180 0
603849 572396 0
102898 592834 6
647354 579190 0
165382 518876 6
848570 703697 1
591851 569051 0
838036 542999 12
624293 333944 3
334529 166765 11
823676 152154 8
339482 151261 11
862189 735684 1
