649088 575733 0
791470 751113 1
156041 295117 2
368864 411216 4
183610 321788 2
599123 616977 0
658103 572250 0
29760 557873 6
649412 856993 13
189499 356601 2
849547 738979 1
332201 181702 11
394606 401451 4
820904 351763 5
463768 793154 7
799724 318884 5
593398 559764 0
232043 177614 11
870826 524625 12
873690 156226 8
336023 416862 4
409244 460295 4
185696 338006 2
652745 406585 3
415564 784464 7
311065 219934 11
883537 210648 8
669427 846395 13
384467 407359 4
641070 424917 3
681053 892766 13
802004 317772 5
318665 158107 11
336974 563207 9
835128 212354 8
411471 446824 4
574989 407228 3
631182 565466 0
415521 368125 4
391555 789079 7
283570 563726 9
508144 167733 14
857309 139276 8
484348 202813 14
788005 292268 5
859185 553000 12
522728 184704 14
834996 728517 1
811745 461099 12
507311 177795 14
149758 564768 6
513181 177419 14
500360 213540 14
796283 315582 5
505117 141877 14
354094 424230 4
618157 384990 3
396150 430329 4
356280 185198 11
315488 160339 11
401708 409924 4
795489 287279 5
377215 418429 4
274321 219665 11
442826 795974 7
345674 579033 9
617573 386848 3
308489 145929 11
881109 152198 8
862642 159379 8
605927 572533 0
811277 335577 5
507092 175151 14
239387 847822 10
381340 409680 4
352520 566829 9
299578 572052 9
672876 844123 13
142563 560090 6
861994 160156 8
800444 311497 5
411053 432808 4
666516 859837 13
163766 859386 10
890223 556874 12
888111 525539 12
562777 437516 3
405986 787439 7
841762 777572 1
496069 102201 14
441415 780207 7
927170 250593 8
342501 336320 4
470922 770669 7
331440 551885 9
418199 851439 7
410682 349328 4
95749 602775 6
245928 867228 10
509522 174376 14
571043 347389 3
620818 396967 3
789448 738035 1
886532 500026 12
424241 452915 4
176278 550602 6
822623 745025 1
599647 858702 13
736557 897961 13
581240 362971 3
563182 367521 3
804354 309671 5
322841 169735 11
862571 550965 12
589244 573777 0
621726 578003 0
622557 361134 3
629000 417990 3
338583 563529 9
435085 791564 7
877440 529137 12
817862 732248 1
207218 589497 6
877510 555087 12
346079 220993 11
801232 307078 5
932662 537069 12
537174 194410 14
242443 851797 10
152957 321354 2
137967 354539 2
861519 531277 12
866352 535933 12
618391 348381 3
607911 576556 0
687638 439257 3
842281 175525 8
605407 427914 3
315965 587160 9
846731 162515 8
377588 402670 4
607269 536961 0
899052 526048 12
671235 856653 13
494317 170837 14
660333 393215 3
394761 461494 4
680592 858526 13
166973 334724 2
850663 157840 8
618113 400002 3
202547 601240 6
153326 558408 6
684537 843821 13
528766 239937 14
718257 857481 13
905770 531812 12
808405 318841 5
800865 312968 5
474652 193224 14
299821 866288 10
799326 106384 8
347575 565576 9
829623 732301 1
185561 342784 2
418621 840463 7
603472 894573 13
276794 384458 2
837880 444574 12
812152 689907 1
383075 447616 4
794826 309589 5
800804 316615 5
578113 395458 3
307616 207295 11
872247 494281 12
640000 863831 13
139033 593287 6
649345 864613 13
671772 860357 13
656642 407213 3
416039 730594 7
499009 205823 14
235022 911236 10
193275 538687 6
669288 860515 13
436034 385951 4
343450 570659 9
258975 837353 10
803202 549001 12
627580 840406 13
355499 224982 11
624106 398619 3
385183 556284 9
342099 561508 9
502511 205121 14
837977 728814 1
596481 567449 0
306346 523584 9
611875 422910 3
425950 788228 7
883434 581923 12
854628 773470 1
662293 872590 13
579712 568354 0
176982 354631 2
107972 601191 6
353991 193997 11
836951 546244 12
335235 180161 11
378824 430343 4
818063 797960 1
353941 399967 4
315013 318367 4
338474 564151 9
183026 545377 6
823840 368410 5
346358 384801 4
671404 857240 13
470047 410943 4
816393 185056 8
453261 148432 14
861069 548327 12
801910 325434 5
166597 572855 6
520461 173217 14
330335 568221 9
834483 173379 8
639997 865965 13
368363 409733 4
404420 577532 9
623433 400160 3
669366 869654 13
717187 883275 13
809552 342258 5
377975 461076 4
382124 786262 7
400550 144359 11
786495 759000 1
201080 823689 10
422198 724557 7
811971 664520 1
146183 622188 6
634967 579020 0
894785 440382 12
848563 117708 8
695514 321521 5
816390 711340 1
425386 379634 4
424190 780052 7
905005 164126 8
177728 352687 2
74519 527539 6
603021 577991 0
668567 856554 13
391976 789416 7
348893 195430 11
325275 866433 10
914183 620056 12
850200 164752 8
444610 400247 4
134261 519275 6
828297 715480 1
519421 154681 14
612799 537497 0
409814 836083 7
146924 565933 6
422917 781112 7
448336 789445 7
519201 139101 14
182618 346663 2
314552 151035 11
248427 146381 11
754841 796342 1
659193 384523 3
340966 420480 4
402666 814060 7
801183 316191 5
335201 585318 9
793684 312065 5
369199 734895 7
673449 860643 13
593865 572987 0
402252 414628 4
811694 188374 8
256512 837094 10
396583 82842 11
420319 794333 7
875825 204959 8
840375 155757 8
122755 434879 2
613351 407952 3
673267 883727 13
585207 336451 3
783116 265635 5
580561 528916 0
146678 558942 6
400257 404936 4
872241 556733 12
631446 561156 0
343651 438750 4
377870 377550 4
850453 155432 8
908409 591215 12
687078 791051 13
860721 547751 12
447192 359893 4
904450 533427 12
626843 367696 3
249616 144446 11
821259 750089 1
850775 162968 8
133023 574572 6
848290 143184 8
878184 487392 12
620685 880813 13
673646 857346 13
210276 824826 10
315830 102777 11
861412 205239 8
440782 782395 7
267264 153034 11
350283 559840 9
621964 409409 3
871544 592403 12
156003 502860 6
115905 560139 6
331798 143962 11
122360 357480 2
439048 403700 4
674311 859933 13
838764 652792 1
187324 377187 2
630067 372798 3
302353 545544 9
669638 842011 13
333787 189423 11
237757 834092 10
851517 541076 12
220620 819091 10
859515 505303 12
529858 213114 14
400079 749617 7
475944 189337 14
499676 196897 14
182050 424341 2
468229 827985 7
667472 570571 0
224681 858432 10
482568 159010 14
589658 640498 0
519680 208378 14
829379 718721 1
619339 401624 3
865157 562132 12
144242 557674 6
144705 375936 2
291723 177824 11
77875 516899 6
358312 559466 9
672628 882986 13
449571 387141 4
839757 190518 8
597017 575588 0
159253 343477 2
397213 377839 4
784164 285702 5
292932 558293 9
605535 925341 13
863859 546898 12
138073 556272 6
332884 533990 9
821361 175823 8
93459 514032 6
238080 830689 10
55359 623076 6
174064 357989 2
831446 182864 8
228095 843338 10
790738 308028 5
661357 801817 13
182840 584262 6
164915 350360 2
241413 845029 10
353333 113156 11
401616 404245 4
604168 555003 0
249253 856047 10
873791 606643 12
377042 182019 11
506812 167031 14
826789 377676 5
386373 606623 9
310386 171068 11
277860 111893 11
395210 357805 4
252845 181181 11
863995 150435 8
333669 542228 9
685551 798742 13
865113 161302 8
430001 765803 7
339115 566863 9
153185 562792 6
231263 863308 10
190634 357254 2
873136 513309 12
606929 571420 0
142000 554964 6
870936 575427 12
866560 165110 8
577728 587566 0
224852 934148 10
383832 340506 4
116492 509399 6
334812 137431 11
656957 871011 13
157394 346500 2
342064 570045 9
865084 713697 1
405350 762342 7
849938 156042 8
425991 787029 7
796786 724615 1
800667 315995 5
291170 110147 11
812965 330224 5
401854 402867 4
576987 392508 3
623004 508050 0
403890 792420 7
856454 117143 8
180633 570302 6
331616 565089 9
394274 837428 7
415417 785827 7
171318 373473 2
668482 358452 3
335742 196692 11
288675 919879 10
784151 283760 5
315963 174031 11
147599 513563 6
407504 803363 7
304399 545221 9
847812 114745 8
370775 144355 11
515494 188459 14
606415 581386 0
113259 568684 6
321645 164662 11
206660 575002 6
315850 573154 9
798981 311092 5
589994 610890 0
551291 576721 0
861966 562885 12
344770 570309 9
261622 869706 10
798523 324500 5
651576 865180 13
448651 847994 7
797947 319734 5
485968 123023 14
618869 398187 3
617954 395504 3
34795 606311 6
344314 595915 9
213208 833959 10
276703 559740 9
825541 151495 8
659321 404555 3
144325 538991 6
798633 317300 5
605911 379990 3
672668 861428 13
825716 373098 5
230399 842538 10
786719 283364 5
758172 608152 12
371779 814715 7
104862 608089 6
790774 303642 5
801093 317509 5
236987 881080 10
387165 404027 4
325057 581121 9
597620 586226 0
392534 593343 9
869991 705259 1
908069 146564 8
659166 861665 13
174373 363552 2
871723 685520 1
162606 363185 2
840349 790707 1
638823 411764 3
818209 719382 1
802853 314938 5
802431 322048 5
